<?xml version="1.0" encoding="utf-8"?>
<!-- Generator: Adobe Illustrator 19.0.0, SVG Export Plug-In . SVG Version: 6.00 Build 0)  -->
<svg version="1.1" id="Layer_1" xmlns="http://www.w3.org/2000/svg" xmlns:xlink="http://www.w3.org/1999/xlink" x="0px" y="0px"
	 viewBox="0 0 601 151.2" style="enable-background:new 0 0 601 151.2;" xml:space="preserve">
<style type="text/css">
	.st0{fill-rule:evenodd;clip-rule:evenodd;fill:#222222;}
	.st1{fill:#222222;}
</style>
<path class="st0" d="M94.4,104.8l-0.3-39.3l38.6-38.4c25.9,27.5,25.4,71-1.5,97.9c-27.4,27.4-72.1,27.4-99.5,0
	c-27.4-27.4-27.4-72.1,0-99.5c27-27,70.7-27.4,98.3-1.3L91.7,62.7l-39.4,0.2L94.4,104.8z M113.2,106.1l-0.3-32.5L130.5,56
	c7.4,18.9,3.5,41.4-11.7,56.6c-20.5,20.5-54,20.5-74.5,0c-20.5-20.5-20.5-54,0-74.5c15.4-15.4,38.1-19.2,57.4-11.8l-18,18l-31.2-0.7
	c-5.3-0.1-10.7,1.5-14.7,5.5c-7.3,7.4-7.4,19.5,0,26.9l43.2,43.2c7.4,7.4,19.5,7.3,26.8,0C111.4,115.4,113.3,110.6,113.2,106.1
	L113.2,106.1z M113.2,106.1"/>
<path class="st1" d="M174,100.6h12.5V79.9h6.1c12.9,0,21.7-4.8,21.7-12.9c0-8.4-9.8-12.9-21.6-12.9H174V100.6z M186.5,79.1V55h4.4
	c6.5,0,8.9,3.6,8.9,11.7c0,8.5-2.4,12.4-9.5,12.4L186.5,79.1z M241.3,66c-4.5,0-7.5,2-9.5,5.5v-4.7h-12.1v33.9h12.1V73.1
	c1.8-3.7,4.5-5.9,7.6-5.9c2.4,0,4.1,2.1,4.1,4.6c0,4-4.2,6.1-4.2,6.1c0.2,2.1,2.2,4.9,5.5,4.9c4.9,0,6.6-4.1,6.6-7.5
	C251.4,68.6,246.3,66,241.3,66L241.3,66z M273.1,101.4c8.9,0,14.4-6.1,16.1-14.2l-0.9-0.2c-1.7,5.2-5.7,8.9-10.4,8.9
	c-6.3,0-10.9-5.9-11.3-16.4h21.6c0-8.7-6.2-13.7-15.1-13.7c-10.1,0-18.4,8-18.4,17.8C254.7,93.5,263,101.4,273.1,101.4L273.1,101.4z
	 M266.6,78.7c0.1-6.7,2.7-12,6-12c3.2,0,4.5,5.2,4.5,12H266.6z M310,101.4l11.6-25.8l13,25.8l15.6-34.7h-0.9l-9.5,20.9l-10-20.9
	h-12.6l4,7.9l-6,13l-10-20.9h-12.6L310,101.4z M372,101.4c8.9,0,14.4-6.1,16.1-14.2l-0.9-0.2c-1.7,5.2-5.7,8.9-10.4,8.9
	c-6.3,0-10.9-5.9-11.3-16.4h21.6c0-8.7-6.2-13.7-15.1-13.7c-10.1,0-18.4,8-18.4,17.8C353.6,93.5,361.9,101.4,372,101.4L372,101.4z
	 M365.6,78.7c0.1-6.7,2.7-12,6-12c3.2,0,4.5,5.2,4.5,12H365.6z M394.3,100.6h12.1V49.2h-12.1V100.6z M431.6,100.6h37.1l1.4-15.8
	h-0.8c-0.6,8.6-9.7,15-19.3,15h-5.8V54.1h-12.5V100.6z M486.3,101.4c4.5,0,9.1-3.4,11-6.6c0.4,3.7,3.5,6.6,7.4,6.6
	c4.3,0,7.8-3.5,7.8-7.8l-0.7-0.1c-0.2,2.4-0.6,2.8-1.2,2.8c-1.1,0-1.3-1.3-1.3-2.8V79.8c0-4.1-1.7-7.4-4.6-9.7
	c-3.2-2.6-7.6-4.1-12.9-4.1c-7.7,0-13.9,4-13.9,9c0,3.1,1.9,6.2,6.2,5.8c2.7-0.2,4.7-2.6,4.7-4.1c0,0-2.7-0.7-2.7-4.6
	c0-3.9,2.7-5.2,5.7-5.2c3.1,0,5.5,2.1,5.5,6v6c-11.5,5.5-20.8,6-20.8,14.6C476.3,98,480.6,101.4,486.3,101.4L486.3,101.4z
	 M491.8,96.7c-2.3,0-4-2.4-4-5c0-5.9,3.6-8.8,9.3-12.1V94C495.7,95.8,494.1,96.7,491.8,96.7L491.8,96.7z M535.7,101.4
	c9.8,0,17.2-6.9,17.2-18.3c0-9.6-7.1-17-16.2-17c-2.4,0-4.8,0.7-6,1.9V49.2h-12v51.4c1.1-0.4,3.3-1.2,6.2-0.9
	C530.3,100.2,530.6,101.4,535.7,101.4L535.7,101.4z M534.6,100.5c-2.2,0-3.9-1.9-3.9-5V69.4c1.1-1.3,2.6-2.2,3.9-2.2
	c4.4,0,5.9,6.7,5.9,15.8C540.5,92.2,538.6,100.5,534.6,100.5L534.6,100.5z M574.1,101.4c8.2,0,16.9-4.3,16.9-10.1
	c0-9.1-22.4-11.9-22.4-19.6c0-3.6,3.8-4.9,6.5-4.9c3.1,0,5.6,1.7,5.6,4.3c0,3.4-2.5,3.7-2.5,3.7c0,2.3,2.6,4.5,5.6,4.5
	c2.3,0,5.4-1.3,5.4-5.2c0-4.7-6.6-8.2-14.2-8.2c-7.7,0-16.5,2.5-16.5,8.9c0,9.5,21.5,12.7,21.5,20.9c0,4-3.8,4.8-6.2,4.8
	c-2.9,0-6.2-1.6-6.2-5.7c0-2.2,0.8-3.6,2.6-3.6c0-2.9-3.2-5.6-6.8-5.6c-3.1,0-5.7,2.1-5.7,5.6C557.5,97.3,566,101.4,574.1,101.4
	L574.1,101.4z M574.1,101.4"/>
</svg>
